<svg xmlns="http://www.w3.org/2000/svg" width="45.667" height="43.905" viewBox="0 0 45.667 43.905">
  <g id="Сгруппировать_696" data-name="Сгруппировать 696" transform="translate(-12 -13)">
    <path id="Контур_3258" data-name="Контур 3258" d="M34.239,62H26.479a.89.89,0,1,0,0,1.78h7.761a.89.89,0,1,0,0-1.78Z" transform="translate(-5.524 -19.928)" fill="#865dcf"/>
    <path id="Контур_3259" data-name="Контур 3259" d="M57.4,45.6l-7.05-7.007a11.22,11.22,0,0,0-1.563-15.932V15.373A2.388,2.388,0,0,0,46.4,13H14.388A2.388,2.388,0,0,0,12,15.373V54.532a2.388,2.388,0,0,0,2.388,2.373H46.4a2.387,2.387,0,0,0,2.388-2.373v-14.4c.107-.086.2-.18.307-.269l7.04,7a.9.9,0,0,0,1.267,0A.886.886,0,0,0,57.4,45.6ZM39.459,36.139H33.366A9.367,9.367,0,0,1,32.1,31.986h7.355a.89.89,0,1,0,0-1.78h-7.3a9.4,9.4,0,0,1,1.577-4.153h5.725a.89.89,0,1,0,0-1.78H35.328A9.554,9.554,0,0,1,47,23.552V39.233a9.558,9.558,0,0,1-12.293-1.314H39.46a.89.89,0,1,0,0-1.78Zm11.717-4.747a9.408,9.408,0,0,1-2.385,6.255V25.137A9.4,9.4,0,0,1,51.176,31.392ZM47,54.532a.6.6,0,0,1-.6.593H14.388a.6.6,0,0,1-.6-.593V15.373a.6.6,0,0,1,.6-.593H46.4a.6.6,0,0,1,.6.593v6.092a11.388,11.388,0,0,0-14.165,2.808H20.954a.89.89,0,1,0,0,1.78H31.635a11.155,11.155,0,0,0-1.289,4.153H20.954a.89.89,0,1,0,0,1.78h9.358a11.137,11.137,0,0,0,1.035,4.153H20.954a.89.89,0,1,0,0,1.78H32.388A11.376,11.376,0,0,0,47,41.319Z" transform="translate(0 0)" fill="#865dcf"/>
  </g>
</svg>
